[gd_resource type="TextFile" load_steps=9 format=2]

[ext_resource path="res://Maze/Generation/MazeScenario.gd" type="Script" id=1]
[ext_resource path="res://Maze/Generation/MortalDefinition.gd" type="Script" id=2]
[ext_resource path="res://Maze/Generation/ItemDefinition.gd" type="Script" id=3]

[sub_resource type="GDScript" id=1]
script/source = "class_name ItemDefinition
extends Resource

#Helper class stores an item definition.
export(String) var item_name
"

[sub_resource type="Resource" id=2]
script = SubResource( 1 )
item_name = "Campfire"

[sub_resource type="Resource" id=3]
script = ExtResource( 3 )
item_name = "Spotlight"

[sub_resource type="Resource" id=4]
script = ExtResource( 2 )
team_id = 1
mortal_type = "Spartan"

[sub_resource type="Resource" id=5]
script = ExtResource( 2 )
team_id = 0
mortal_type = "Minotaur"

[resource]
script = ExtResource( 1 )
scenario_name = "Survive The Maze"
maze_description = "The default way to play!\""
number_of_teams = 2
maze = "******************************************************************************************
*????????????????????????????????????????????????????????????????????????????????????????*
*????????????????????????????????????????????????????????????????????????????????????????*
*??????*****??????**???**??????******??????***???***?????**?????***???***?????******?????*
*?????*******?????**???**??????*******??????**???**??????**??????**???**??????******?????*
*?????**??????????**???**??????**???**??????**???**??????**??????**???**??????**?????????*
*?????*****???????**???**??????*******??????***?**???????**??????***?**???????******?????*
*???????****??????**???**??????******????????**?**???????**???????**?**???????******?????*
*?????????***?????**???**??????**??**????????*****???????**???????*****???????**?????????*
*?????*******?????**???**??????**??***????????***????????**????????***????????******?????*
*?????******???????*****???????**???***???????***????????**????????***????????******?????*
*????????????????????????????????????????????????????????????????????????????????????????*
*???????????????????                                                  ???????????????????*
*????????1  ???????? XXXXXXXXXXXXXXXXXXXXXXXXXXXXXXXXXXXXXXXXXXXXXXXX ?????????? 1???????*
*????????  ????????? X                                              X ??????????  ???????*
*??????????????????? X                                              X ???????????????????*
*??????????????????? X                                              X ???????????????????*
*??????????????????? X                                              X ???????????????????*
*??????????????????? X                                              X ???????????????????*
*??????????????????? X                                              X ???????????????????*
*??????????????????? X                                              X ???????????????????*
*??????????????????? X                                              X ???????????????????*
*??????????????????? X                                              X ???????????????????*
*??????????????????? X                                              X ???????????????????*
*??????????????????? X                                              X ???????????????????*
*??????????????????? X                                              X ???????????????????*
*??????????????????? X                                              X ???????????????????*
*??????????????????? X                                              X ???????????????????*
*??????????????????? X                                              X ???????????????????*
*??????????????????? X                                              X ???????????????????*
*??????????????????? X                                              X ???????????????????*
*??????????????????? X                                              X ???????????????????*
*??????????????????? X                                              X ???????????????????*
*??????????????????? X                                              X ???????????????????*
*??????????????????? X                                              X ???????????????????*
*??????????????????? X                                              X ???????????????????*
*??????????????????? X                                              X ???????????????????*
*????????1 ????????? XXXXXXXXXXXXXXXXXXXXXXXXXXXXXXXXXXXXXXXXXXXXXXXX ?????????? 1???????*
*????????  ?????????                                                  ??????????  ???????*
*????????????????????????????????????????????????????????????????????????????????????????*
*???********???**???**?????******????????????***??***??????***??????********????******???*
*???********???**???**?????******????????????***??***??????***??????********????******???*
*??????**??????**???**?????**????????????????********?????**?**?????????***?????**???????*
*??????**??????*******?????******????????????********?????**?**????????***??????******???*
*??????**??????*******?????******????????????**?**?**????**??***??????***???????******???*
*??????**??????**???**?????**????????????????**?**?**????*******?????***????????**???????*
*??????**??????**???**?????******????????????**?**?**????*******????********????******???*
*??????**??????**???**?????******????????????**?**?**????**???**????********????******???*
*????????????????????????????????????????????????????????????????????????????????????????*
******************************************************************************************"
mortal_definitions = {
"1": SubResource( 4 ),
"2": SubResource( 5 )
}
item_definitions = {
"F": SubResource( 2 ),
"L": SubResource( 3 )
}
